^D:\_PROGRAMMINGPROJECTS\CPP_PROJECTS\3DENGINES\SIMPLE3DENGINE\SIMPLE3DENGINE\RELEASE\SIMPLE3DENGINE.OBJ
D:\_PROGRAMMINGPROJECTS\CPP_PROJECTS\3DENGINES\SIMPLE3DENGINE\RELEASE\SIMPLE3DENGINE.EXE
D:\_PROGRAMMINGPROJECTS\CPP_PROJECTS\3DENGINES\SIMPLE3DENGINE\RELEASE\SIMPLE3DENGINE.PDB
